…
```r
planes %>% count(tailnum) %>% filter(n > 1)
```

```
## # A tibble: 0 x 2
## # ... with 2 variables: tailnum <chr>, n <int>
```

```r
flights %>% count(flight) %>% filter(n > 1)
```

```
## # A tibble: 3,493 x 2
##    flight     n
##     <int> <int>
##  1      1   701
##  2      2    51
##  3      3   631
##  4      4   393
##  5      5   324
##  6      6   210
##  7      7   237
##  8      8   236
##  9      9   153
## 10     10    61
## # ... with 3,483 more rows
```
…
