…
```r
my.returns %>% 
  tq_portfolio(assets_col = symbol,
               returns_col = daily.returns,
               weights = c(.5, .25, .25))
```

```
## # A tibble: 446 x 2
##    date       portfolio.returns
##    <date>                 <dbl>
##  1 2019-10-01          0       
##  2 2019-10-02          0.0346  
##  3 2019-10-03          0.0119  
##  4 2019-10-04         -0.0129  
##  5 2019-10-07          0.0602  
##  6 2019-10-08          0.000997
##  7 2019-10-09         -0.0575  
##  8 2019-10-10          0.0191  
##  9 2019-10-11          0.00641 
## 10 2019-10-14          0.00318 
## # ... with 436 more rows
```
…
